Exercise6/Question1p3/simulation/qsim/Question1p3.msim.vcd
$comment
	File created using the following command:
		vcd file Question1p3.msim.vcd -direction
$end
$date
	Sat Nov 20 19:38:13 2021
$end
$version
	ModelSim Version 10.1d
$end
$timescale
	1ps
$end
$scope module Question1p3_vlg_vec_tst $end
$var reg 1 ! X $end
$var reg 1 " Y $end
$var reg 1 # Z $end
$var wire 1 $ F1 $end
$var wire 1 % F2 $end
$var wire 1 & sampler $end
$scope module i1 $end
$var wire 1 ' gnd $end
$var wire 1 ( vcc $end
$var wire 1 ) unknown $end
$var tri1 1 * devclrn $end
$var tri1 1 + devpor $end
$var tri1 1 , devoe $end
$var wire 1 - Y~combout $end
$var wire 1 . Z~combout $end
$var wire 1 / X~combout $end
$var wire 1 0 nand3-1~0_combout $end
$var wire 1 1 nand3-2~0_combout $end
$upscope $end
$upscope $end
$enddefinitions $end
#0
$dumpvars
0!
0"
0#
1$
0%
x&
0'
1(
x)
1*
1+
1,
0-
0.
0/
00
11
$end
#50000
1!
1/
0&
10
0$
#100000
1"
0!
1-
0/
1&
01
1%
#150000
1!
1/
0&
#200000
1#
0"
0!
1.
0-
0/
1&
#250000
1!
1/
0&
11
00
0%
1$
#300000
1"
0!
1-
0/
1&
10
0$
#350000
1!
1/
0&
00
1$
#400000
0#
0"
0!
0.
0-
0/
1&
#450000
1!
1/
0&
10
0$
#500000
1"
0!
1-
0/
1&
01
1%
#550000
1!
1/
0&
#600000
1#
0"
0!
1.
0-
0/
1&
#650000
1!
1/
0&
11
00
0%
1$
#700000
1"
0!
1-
0/
1&
10
0$
#750000
1!
1/
0&
00
1$
