Exercise8/Question1/simulation/qsim/Question1.msim.vcd
$comment
	File created using the following command:
		vcd file Question1.msim.vcd -direction
$end
$date
	Thu Dec 02 19:50:32 2021
$end
$version
	ModelSim Version 10.1d
$end
$timescale
	1ps
$end
$scope module Question1_vlg_vec_tst $end
$var reg 1 ! CLK $end
$var reg 1 " CLR $end
$var reg 1 # I0 $end
$var reg 1 $ I1 $end
$var reg 1 % I2 $end
$var reg 1 & I3 $end
$var reg 1 ' S1 $end
$var reg 1 ( S2 $end
$var wire 1 ) A0 $end
$var wire 1 * A1 $end
$var wire 1 + A2 $end
$var wire 1 , A3 $end
$var wire 1 - sampler $end
$scope module i1 $end
$var wire 1 . gnd $end
$var wire 1 / vcc $end
$var wire 1 0 unknown $end
$var tri1 1 1 devclrn $end
$var tri1 1 2 devpor $end
$var tri1 1 3 devoe $end
$var wire 1 4 S2~combout $end
$var wire 1 5 CLK~combout $end
$var wire 1 6 CLK~clkctrl_outclk $end
$var wire 1 7 I0~combout $end
$var wire 1 8 I1~combout $end
$var wire 1 9 S1~combout $end
$var wire 1 : I2~combout $end
$var wire 1 ; I3~combout $end
$var wire 1 < QA3|9~0_combout $end
$var wire 1 = QA3|9~1_combout $end
$var wire 1 > CLR~combout $end
$var wire 1 ? CLR~clkctrl_outclk $end
$var wire 1 @ inst|10~regout $end
$var wire 1 A QA2|9~0_combout $end
$var wire 1 B QA2|9~1_combout $end
$var wire 1 C inst|9~regout $end
$var wire 1 D QA1|9~0_combout $end
$var wire 1 E QA1|9~1_combout $end
$var wire 1 F inst3|10~regout $end
$var wire 1 G QA0|9~0_combout $end
$var wire 1 H QA0|9~1_combout $end
$var wire 1 I inst3|9~regout $end
$upscope $end
$upscope $end
$enddefinitions $end
#0
$dumpvars
0!
1"
0#
0$
0%
0&
0'
0(
0)
0*
0+
0,
x-
0.
1/
x0
11
12
13
04
05
06
07
08
09
0:
0;
1<
1=
1>
1?
0@
1A
1B
0C
1D
1E
0F
1G
1H
0I
$end
#25000
0"
1!
0>
15
16
0?
0-
1I
1F
1C
1@
0G
0<
0D
0A
1)
1*
1+
1,
0H
0=
0E
0B
#50000
0!
05
06
1-
#75000
1!
15
16
0-
0I
0F
0C
0@
1G
1<
1D
1A
0)
0*
0+
0,
1H
1=
1E
1B
#100000
1&
1$
1#
1(
1'
0!
1;
18
17
14
19
05
06
1-
0B
#125000
1!
15
16
0-
1I
1F
1@
1)
1*
1,
#150000
0&
0$
0#
0(
0'
0!
0;
08
07
04
09
05
06
1-
0G
0D
0<
1B
0H
0E
0=
#175000
1!
15
16
0-
0I
0F
1C
0@
1G
1<
1D
0A
0)
0*
1+
0,
1H
1=
1E
0B
#200000
1'
0!
19
05
06
1-
0H
0G
0<
0=
#225000
1!
15
16
0-
1F
0C
1H
0D
1*
0+
0E
#250000
0!
05
06
1-
#275000
1!
15
16
0-
1I
0F
1<
0H
1)
0*
1=
#300000
0!
05
06
1-
#325000
1!
15
16
0-
0I
1@
0<
1B
0)
1,
0=
#350000
1(
0'
0!
14
09
05
06
1-
1G
0B
1H
#375000
1!
15
16
0-
1I
0@
0G
1E
1)
0,
0H
#400000
0!
05
06
1-
#425000
1!
15
16
0-
0I
1F
0E
1A
0)
1*
1B
#450000
0!
05
06
1-
#475000
1!
15
16
0-
0F
1C
0A
1=
0*
1+
0B
#500000
0!
05
06
1-
#525000
1!
15
16
0-
0C
1@
0=
1G
0+
1,
1H
#550000
0(
0!
04
05
06
1-
1D
1A
1E
1B
#575000
1"
1!
1>
15
16
1?
0-
0@
1<
0,
1=
