Exercise3/Question2/simulation/qsim/Question2.msim.vcd
$comment
	File created using the following command:
		vcd file Question2.msim.vcd -direction
$end
$date
	Sat Nov 06 09:50:28 2021
$end
$version
	ModelSim Version 10.1d
$end
$timescale
	1ps
$end
$scope module Question2_vlg_vec_tst $end
$var reg 1 ! A $end
$var reg 1 " B $end
$var reg 1 # C $end
$var reg 1 $ D $end
$var wire 1 % ERROR $end
$var wire 1 & W $end
$var wire 1 ' X $end
$var wire 1 ( Y $end
$var wire 1 ) Z $end
$var wire 1 * sampler $end
$scope module i1 $end
$var wire 1 + gnd $end
$var wire 1 , vcc $end
$var wire 1 - unknown $end
$var tri1 1 . devclrn $end
$var tri1 1 / devpor $end
$var tri1 1 0 devoe $end
$var wire 1 1 B~combout $end
$var wire 1 2 A~combout $end
$var wire 1 3 C~combout $end
$var wire 1 4 AB_OR_AC~0_combout $end
$var wire 1 5 D~combout $end
$var wire 1 6 B_XOR_C~combout $end
$var wire 1 7 inst1~combout $end
$upscope $end
$upscope $end
$enddefinitions $end
#0
$dumpvars
0!
0"
0#
0$
0%
1&
0'
0(
1)
x*
0+
1,
x-
1.
1/
10
01
02
03
04
05
06
17
$end
#50000
1$
15
0*
0)
#100000
1#
0$
13
05
1*
07
16
1(
1)
0&
1'
#150000
1$
15
0*
0)
#200000
1"
0#
0$
11
03
05
1*
0(
1)
#250000
1$
15
0*
0)
#300000
1#
0$
13
05
1*
06
1(
1)
0'
#350000
1$
15
0*
0)
#400000
1!
0"
0#
0$
12
01
03
05
1*
0(
1)
#450000
1$
15
0*
0)
#500000
1#
0$
13
05
1*
16
14
1(
1)
1'
1%
#550000
1$
15
0*
0)
#600000
1"
0#
0$
11
03
05
1*
0(
1)
#650000
1$
15
0*
0)
#700000
1#
0$
13
05
1*
06
1(
1)
0'
#750000
1$
15
0*
0)
#800000
0!
0"
0#
0$
02
01
03
05
1*
17
04
0(
1)
1&
0%
#850000
1$
15
0*
0)
#900000
1#
0$
13
05
1*
07
16
1(
1)
0&
1'
#950000
1$
15
0*
0)
