Exercise8/Question3p4/simulation/qsim/Question3p4.msim.vcd
$comment
	File created using the following command:
		vcd file Question3p4.msim.vcd -direction
$end
$date
	Tue Dec 07 14:59:55 2021
$end
$version
	ModelSim Version 10.1d
$end
$timescale
	1ps
$end
$scope module Question3p4_vlg_vec_tst $end
$var reg 1 ! CLK $end
$var reg 1 " CLR $end
$var wire 1 # A0 $end
$var wire 1 $ A1 $end
$var wire 1 % A2 $end
$var wire 1 & A3 $end
$var wire 1 ' RCO $end
$var wire 1 ( sampler $end
$scope module i1 $end
$var wire 1 ) gnd $end
$var wire 1 * vcc $end
$var wire 1 + unknown $end
$var tri1 1 , devclrn $end
$var tri1 1 - devpor $end
$var tri1 1 . devoe $end
$var wire 1 / CLK~combout $end
$var wire 1 0 CLK~clkctrl_outclk $end
$var wire 1 1 inst|A1A0|7~0_combout $end
$var wire 1 2 CLR~combout $end
$var wire 1 3 CLR~clkctrl_outclk $end
$var wire 1 4 inst|A1A0|7~regout $end
$var wire 1 5 inst|A3A2|7~0_combout $end
$var wire 1 6 inst|A3A2|7~regout $end
$var wire 1 7 inst|inst23~1_combout $end
$var wire 1 8 inst|A3A2|8~0_combout $end
$var wire 1 9 inst|A3A2|8~regout $end
$var wire 1 : inst|inst23~0_combout $end
$var wire 1 ; inst|A1A0|8~feeder_combout $end
$var wire 1 < inst|A1A0|8~regout $end
$upscope $end
$upscope $end
$enddefinitions $end
#0
$dumpvars
0!
1"
0#
0$
0%
0&
0'
x(
0)
1*
x+
1,
1-
1.
0/
00
11
12
13
04
05
06
07
08
09
1:
1;
0<
$end
#25000
0"
1!
02
1/
10
03
0(
17
01
1<
14
0:
1#
1$
0;
18
#50000
0!
0/
00
1(
#75000
1!
1/
10
0(
0<
19
04
1:
0#
1%
0$
1;
#100000
0!
0/
00
1(
#125000
1!
1/
10
0(
1<
0:
11
1#
0;
#150000
0!
0/
00
1(
#175000
1!
1/
10
0(
0<
14
1:
08
15
0#
1$
1;
18
05
#200000
0!
0/
00
1(
#225000
1!
1/
10
0(
1<
0:
01
1#
0;
08
15
#250000
0!
0/
00
1(
#275000
1!
1/
10
0(
0<
09
16
04
1:
0#
0%
1&
0$
1;
#300000
0!
0/
00
1(
#325000
1!
1/
10
0(
1<
0:
11
1#
0;
#350000
0!
0/
00
1(
#375000
1!
1/
10
0(
0<
14
1:
18
0#
1$
1;
08
#400000
0!
0/
00
1(
#425000
1!
1/
10
0(
1<
0:
01
1#
0;
18
#450000
0!
0/
00
1(
#475000
1!
1/
10
0(
0<
19
04
1:
07
05
0#
1%
0$
1;
08
11
#500000
0!
0/
00
1(
#525000
1!
1/
10
0(
1<
09
06
14
0:
17
1#
0%
0&
1$
0;
18
01
#550000
0!
0/
00
1(
#575000
1!
1/
10
0(
0<
19
04
1:
0#
1%
0$
1;
#600000
0!
0/
00
1(
#625000
1!
1/
10
0(
1<
0:
11
1#
0;
#650000
0!
0/
00
1(
#675000
1!
1/
10
0(
0<
14
1:
08
15
0#
1$
1;
18
05
