Exercise8/Question3p3/simulation/qsim/Question3p3.msim.vcd
$comment
	File created using the following command:
		vcd file Question3p3.msim.vcd -direction
$end
$date
	Sun Dec 05 15:09:41 2021
$end
$version
	ModelSim Version 10.1d
$end
$timescale
	1ps
$end
$scope module Question3p3_vlg_vec_tst $end
$var reg 1 ! CLK $end
$var reg 1 " CLR $end
$var wire 1 # A0 $end
$var wire 1 $ A1 $end
$var wire 1 % A2 $end
$var wire 1 & A3 $end
$var wire 1 ' RCO $end
$var wire 1 ( sampler $end
$scope module i1 $end
$var wire 1 ) gnd $end
$var wire 1 * vcc $end
$var wire 1 + unknown $end
$var tri1 1 , devclrn $end
$var tri1 1 - devpor $end
$var tri1 1 . devoe $end
$var wire 1 / CLK~combout $end
$var wire 1 0 CLR~combout $end
$var wire 1 1 inst|A1A0|8~0_combout $end
$var wire 1 2 inst|A1A0|8~regout $end
$var wire 1 3 inst|A1A0|7~0_combout $end
$var wire 1 4 inst|A1A0|7~regout $end
$var wire 1 5 inst|A3A2|8~0_combout $end
$var wire 1 6 inst|A3A2|7~0_combout $end
$var wire 1 7 inst|A3A2|7~regout $end
$var wire 1 8 inst|A3A2|8~1_combout $end
$var wire 1 9 inst|A3A2|8~regout $end
$upscope $end
$upscope $end
$enddefinitions $end
#0
$dumpvars
0!
1"
0#
0$
0%
0&
0'
x(
0)
1*
x+
1,
1-
1.
0/
10
01
02
03
04
05
06
07
18
09
$end
#25000
0"
1!
00
1/
0(
08
11
19
18
1%
#50000
0!
0/
1(
#75000
1!
1/
0(
12
13
01
1#
#100000
0!
0/
1(
#125000
1!
1/
0(
14
02
11
1$
0#
#150000
0!
0/
1(
#175000
1!
1/
0(
12
15
03
01
1#
08
16
#200000
0!
0/
1(
#225000
1!
1/
0(
09
17
04
02
18
05
11
0%
1&
0$
0#
08
#250000
0!
0/
1(
#275000
1!
1/
0(
12
13
01
1#
#300000
0!
0/
1(
#325000
1!
1/
0(
14
02
11
1$
0#
#350000
0!
0/
1(
#375000
1!
1/
0(
12
15
03
01
1#
18
#400000
0!
0/
1(
#425000
1!
1/
0(
19
04
02
06
05
11
1%
0$
0#
16
#450000
0!
0/
1(
#475000
1!
1/
0(
12
13
01
1#
#500000
0!
0/
1(
#525000
1!
1/
0(
14
02
11
1$
0#
#550000
0!
0/
1(
#575000
1!
1/
0(
12
15
03
01
1#
06
#600000
0!
0/
1(
#625000
1!
1/
0(
07
04
02
08
16
05
11
0&
0$
0#
18
06
#650000
0!
0/
1(
#675000
1!
1/
0(
12
13
01
1#
#700000
0!
0/
1(
#725000
1!
1/
0(
14
02
11
1$
0#
#750000
0!
0/
1(
#775000
1!
1/
0(
12
15
03
01
1#
08
16
#800000
0!
0/
1(
#825000
1!
1/
0(
09
17
04
02
18
05
11
0%
1&
0$
0#
08
#850000
0!
0/
1(
#875000
1!
1/
0(
12
13
01
1#
#900000
0!
0/
1(
#925000
1!
1/
0(
14
02
11
1$
0#
#950000
0!
0/
1(
#975000
1!
1/
0(
12
15
03
01
1#
18
