Exercise5/Question2/simulation/qsim/Question2.msim.vcd
$comment
	File created using the following command:
		vcd file Question2.msim.vcd -direction
$end
$date
	Sat Nov 20 18:26:16 2021
$end
$version
	ModelSim Version 10.1d
$end
$timescale
	1ps
$end
$scope module Question2alt_vlg_vec_tst $end
$var reg 1 ! A0 $end
$var reg 1 " A1 $end
$var reg 1 # A2 $end
$var wire 1 $ C0 $end
$var wire 1 % C1 $end
$var wire 1 & C2 $end
$var wire 1 ' C3 $end
$var wire 1 ( C4 $end
$var wire 1 ) C5 $end
$var wire 1 * sampler $end
$scope module i1 $end
$var wire 1 + gnd $end
$var wire 1 , vcc $end
$var wire 1 - unknown $end
$var tri1 1 . devclrn $end
$var tri1 1 / devpor $end
$var tri1 1 0 devoe $end
$var wire 1 1 A0~combout $end
$var wire 1 2 A1~combout $end
$var wire 1 3 inst2|A_XOR_B~combout $end
$var wire 1 4 A2~combout $end
$var wire 1 5 inst6|A_XOR_B~combout $end
$var wire 1 6 inst7|A_XOR_B~0_combout $end
$var wire 1 7 inst7|A_AND_B~0_combout $end
$upscope $end
$upscope $end
$enddefinitions $end
#0
$dumpvars
0!
0"
0#
0$
0%
0&
0'
0(
0)
x*
0+
1,
x-
1.
1/
10
01
02
03
04
05
06
07
$end
#50000
1!
11
0*
13
1%
1&
#100000
1"
0!
12
01
1*
15
0%
1'
#150000
1!
11
0*
16
05
03
1%
1(
0'
0&
#200000
1#
0"
0!
14
02
01
1*
15
0%
1'
#250000
1!
11
0*
13
1%
1&
#300000
1"
0!
12
01
1*
17
06
05
0%
1)
0(
0'
#350000
1!
11
0*
15
03
1%
1'
0&
#400000
0#
0"
0!
04
02
01
1*
07
05
0%
0)
0'
#450000
1!
11
0*
13
1%
1&
