Exercise5/Question3/simulation/qsim/Question3.msim.vcd
$comment
	File created using the following command:
		vcd file Question3.msim.vcd -direction
$end
$date
	Sat Nov 20 18:00:46 2021
$end
$version
	ModelSim Version 10.1d
$end
$timescale
	1ps
$end
$scope module Question3_vlg_vec_tst $end
$var reg 1 ! A0 $end
$var reg 1 " A1 $end
$var reg 1 # B0 $end
$var reg 1 $ B1 $end
$var wire 1 % E $end
$var wire 1 & G $end
$var wire 1 ' L $end
$var wire 1 ( sampler $end
$scope module i1 $end
$var wire 1 ) gnd $end
$var wire 1 * vcc $end
$var wire 1 + unknown $end
$var tri1 1 , devclrn $end
$var tri1 1 - devpor $end
$var tri1 1 . devoe $end
$var wire 1 / A1~combout $end
$var wire 1 0 B1~combout $end
$var wire 1 1 A0~combout $end
$var wire 1 2 B0~combout $end
$var wire 1 3 inst14~combout $end
$var wire 1 4 inst13~combout $end
$var wire 1 5 inst12~combout $end
$upscope $end
$upscope $end
$enddefinitions $end
#0
$dumpvars
0!
0"
0#
0$
1%
0&
0'
x(
0)
1*
x+
1,
1-
1.
0/
00
01
02
03
04
05
$end
#50000
1#
12
0(
15
13
1'
0%
#100000
1$
0#
10
02
1(
#150000
1#
12
0(
#200000
1!
0$
0#
11
00
02
1(
14
03
1&
0'
#250000
1#
12
0(
05
04
0&
1%
#300000
1$
0#
10
02
1(
15
13
1'
0%
#350000
1#
12
0(
#400000
1"
0!
0$
0#
1/
01
00
02
1(
14
03
1&
0'
#450000
1#
12
0(
#500000
1$
0#
10
02
1(
05
04
0&
1%
#550000
1#
12
0(
15
13
1'
0%
#600000
1!
0$
0#
11
00
02
1(
14
03
1&
0'
#650000
1#
12
0(
#700000
1$
0#
10
02
1(
#750000
1#
12
0(
05
04
0&
1%
#800000
0"
0!
0$
0#
0/
01
00
02
1(
#850000
1#
12
0(
15
13
1'
0%
#900000
1$
0#
10
02
1(
#950000
1#
12
0(
