Exercise6/Question2/simulation/qsim/Question2.msim.vcd
$comment
	File created using the following command:
		vcd file Question2.msim.vcd -direction
$end
$date
	Sat Nov 20 19:33:12 2021
$end
$version
	ModelSim Version 10.1d
$end
$timescale
	1ps
$end
$scope module Question2_vlg_vec_tst $end
$var reg 1 ! A $end
$var reg 1 " B $end
$var reg 1 # C $end
$var reg 1 $ D0 $end
$var reg 1 % D1 $end
$var reg 1 & D2 $end
$var reg 1 ' D3 $end
$var reg 1 ( D4 $end
$var reg 1 ) D5 $end
$var reg 1 * D6 $end
$var reg 1 + D7 $end
$var reg 1 , G $end
$var wire 1 - WN $end
$var wire 1 . Y $end
$var wire 1 / sampler $end
$scope module i1 $end
$var wire 1 0 gnd $end
$var wire 1 1 vcc $end
$var wire 1 2 unknown $end
$var tri1 1 3 devclrn $end
$var tri1 1 4 devpor $end
$var tri1 1 5 devoe $end
$var wire 1 6 inst|sub|78~2_combout $end
$var wire 1 7 D4~combout $end
$var wire 1 8 D1~combout $end
$var wire 1 9 D0~combout $end
$var wire 1 : B~combout $end
$var wire 1 ; D2~combout $end
$var wire 1 < D3~combout $end
$var wire 1 = inst|sub|78~3_combout $end
$var wire 1 > D6~combout $end
$var wire 1 ? A~combout $end
$var wire 1 @ inst|sub|78~0_combout $end
$var wire 1 A D5~combout $end
$var wire 1 B D7~combout $end
$var wire 1 C inst|sub|78~1_combout $end
$var wire 1 D G~combout $end
$var wire 1 E C~combout $end
$var wire 1 F inst|sub|85~0_combout $end
$upscope $end
$upscope $end
$enddefinitions $end
#0
$dumpvars
0!
0"
0#
0$
0%
0&
0'
0(
0)
0*
0+
0,
1-
0.
x/
00
11
x2
13
14
15
06
07
08
09
0:
0;
0<
0=
0>
0?
0@
0A
0B
0C
0D
0E
0F
$end
#50000
1$
19
0/
16
1=
1F
1.
0-
#100000
1!
0$
1?
09
1/
06
0=
0F
0.
1-
#150000
1%
18
0/
16
1=
1F
1.
0-
#200000
1"
0!
0%
1:
0?
08
1/
0=
06
0F
0.
1-
#250000
1&
1;
0/
1=
1F
1.
0-
#300000
1!
0&
1?
0;
1/
1@
16
0=
0F
0.
1-
#350000
1'
1<
0/
1=
1F
1.
0-
#400000
1#
0"
0!
0'
1E
0:
0?
0<
1/
0F
0@
06
1C
0C
0=
1F
0.
1-
0F
1.
0-
0.
1-
#450000
1(
17
0/
1@
1C
1F
1.
0-
#500000
1!
0(
1?
07
1/
0C
0@
0F
0.
1-
#550000
1)
1A
0/
1C
1F
1.
0-
#600000
1"
0!
0)
1:
0?
0A
1/
0C
0F
0.
1-
#650000
1*
1>
0/
1@
1C
1F
1.
0-
#700000
1!
0*
1?
0>
1/
0C
16
0F
0.
1-
#750000
1+
1B
0/
1C
1F
1.
0-
#799000
0+
0B
1/
0C
0F
0.
1-
#800000
1,
0#
0"
0!
1D
0E
0:
0?
0/
0@
1=
06
1C
0C
0=
#850000
1$
19
1/
16
1=
#900000
1!
0$
1?
09
0/
06
0=
#950000
1%
18
1/
16
1=
#999000
0%
08
0/
06
0=
#1000000
1"
0!
1:
0?
1/
#1050000
1&
1;
0/
1=
#1100000
1!
0&
1?
0;
1/
1@
16
0=
#1150000
1'
1<
0/
1=
#1200000
1#
0"
0!
0'
1E
0:
0?
0<
1/
0@
06
1C
0C
0=
#1250000
1(
17
0/
1@
1C
#1300000
1!
0(
1?
07
1/
0C
0@
#1350000
1)
1A
0/
1C
#1400000
1"
0!
0)
1:
0?
0A
1/
0C
#1450000
1*
1>
0/
1@
1C
#1500000
1!
0*
1?
0>
1/
0C
16
#1550000
1+
1B
0/
1C
