Exercise7/Question1/simulation/qsim/Question1.msim.vcd
$comment
	File created using the following command:
		vcd file Question1.msim.vcd -direction
$end
$date
	Sun Nov 28 16:30:27 2021
$end
$version
	ModelSim Version 10.1d
$end
$timescale
	1ps
$end
$scope module Question1_vlg_vec_tst $end
$var reg 1 ! A0O $end
$var reg 1 " A1O $end
$var reg 1 # A2O $end
$var reg 1 $ A3O $end
$var reg 1 % CLK $end
$var reg 1 & CLR $end
$var wire 1 ' A0 $end
$var wire 1 ( A1 $end
$var wire 1 ) A2 $end
$var wire 1 * A3 $end
$var wire 1 + sampler $end
$scope module i1 $end
$var wire 1 , gnd $end
$var wire 1 - vcc $end
$var wire 1 . unknown $end
$var tri1 1 / devclrn $end
$var tri1 1 0 devpor $end
$var tri1 1 1 devoe $end
$var wire 1 2 inst1|10~1_combout $end
$var wire 1 3 inst|10~1_combout $end
$var wire 1 4 CLK~combout $end
$var wire 1 5 CLK~clkctrl_outclk $end
$var wire 1 6 A0O~combout $end
$var wire 1 7 inst1|9~1_combout $end
$var wire 1 8 CLR~combout $end
$var wire 1 9 A3O~combout $end
$var wire 1 : A2O~combout $end
$var wire 1 ; inst|9~1_combout $end
$var wire 1 < inst2|inst6~0_combout $end
$var wire 1 = A1O~combout $end
$var wire 1 > inst2|inst4~0_combout $end
$var wire 1 ? inst1|10~3_combout $end
$var wire 1 @ inst1|10~0_combout $end
$var wire 1 A inst1|10~_emulated_regout $end
$var wire 1 B inst1|10~2_combout $end
$var wire 1 C inst2|inst6~1_combout $end
$var wire 1 D inst|9~3_combout $end
$var wire 1 E inst|9~0_combout $end
$var wire 1 F inst|9~_emulated_regout $end
$var wire 1 G inst|9~2_combout $end
$var wire 1 H inst|10~3_combout $end
$var wire 1 I inst|10~0_combout $end
$var wire 1 J inst|10~_emulated_regout $end
$var wire 1 K inst|10~2_combout $end
$var wire 1 L inst2|inst5~0_combout $end
$var wire 1 M inst1|9~3_combout $end
$var wire 1 N inst1|9~0_combout $end
$var wire 1 O inst1|9~_emulated_regout $end
$var wire 1 P inst1|9~2_combout $end
$upscope $end
$upscope $end
$enddefinitions $end
#0
$dumpvars
0!
0"
0#
0$
0%
1&
0'
0(
0)
0*
x+
0,
1-
x.
1/
10
11
02
03
04
05
06
07
18
09
0:
0;
0<
0=
0>
0?
1@
0A
0B
0C
0D
1E
0F
0G
1H
1I
0J
0K
0L
0M
1N
0O
0P
$end
#50000
1%
0&
14
08
15
0+
0N
0I
0E
0@
#100000
0%
04
05
1+
#150000
1%
14
15
0+
1J
1K
1C
1>
1*
1D
1?
#200000
0%
04
05
1+
#250000
1%
14
15
0+
1F
1A
1G
1B
1L
0H
1<
1)
1(
1M
#300000
0%
04
05
1+
#350000
1%
14
15
0+
1O
0J
1P
0K
0C
0>
1H
1'
0*
0?
#400000
0%
04
05
1+
#450000
1%
14
15
0+
1J
0A
1K
0B
0M
0H
1C
0D
1?
1*
0(
1D
#500000
0%
04
05
1+
#550000
1%
14
15
0+
0O
0J
1A
0P
0K
1B
0C
1H
0?
0'
0*
1(
#600000
0%
04
05
1+
#650000
1%
14
15
0+
1J
0A
1K
0B
1M
0H
1C
1>
0D
1?
1*
0(
1D
0?
#700000
0%
04
05
1+
#750000
1%
14
15
0+
1O
0J
1P
0K
0C
0>
1H
1'
0*
0D
1?
#800000
0%
04
05
1+
#850000
1%
14
15
0+
1J
0F
1A
1K
0G
1B
0M
0H
0?
1D
1*
0)
1(
#900000
0%
04
05
1+
#950000
1%
14
15
0+
0O
0J
1F
0A
0P
0K
1G
0B
1H
1?
0D
0'
0*
1)
0(
#1000000
0%
04
05
1+
#1050000
1%
14
15
0+
1J
0F
1A
1K
0G
1B
1M
0H
1>
0<
0?
1D
1*
0)
1(
1?
0D
#1100000
0%
04
05
1+
#1150000
1%
14
15
0+
1O
0J
1P
0K
0>
1H
1'
0*
0?
#1200000
0%
04
05
1+
#1250000
1%
14
15
0+
1J
0A
1K
0B
0M
1<
0L
1*
0(
#1300000
0%
04
05
1+
#1350000
1%
14
15
0+
0O
0P
1C
1>
0<
0'
1D
1?
#1400000
1!
1&
0%
16
18
04
05
1+
1N
0K
1I
1E
1@
0C
0>
0*
0D
0?
0J
#1450000
0&
1%
08
14
15
0+
1P
0I
0E
0@
17
1'
#1500000
0!
0%
06
04
05
1+
0N
#1550000
1%
14
15
0+
1J
1K
1M
1<
1*
#1600000
0%
04
05
1+
#1650000
1%
14
15
0+
1O
0P
1C
1>
0<
0'
1D
1?
#1700000
1"
1&
0%
1=
18
04
05
1+
1@
1N
0K
1I
1E
07
0M
0C
0>
0*
0D
0?
0O
0J
#1750000
0&
1%
08
14
15
0+
0N
0I
0E
1B
12
1L
1?
1(
#1800000
0"
0%
0=
04
05
1+
0@
#1850000
1%
14
15
0+
1J
1A
1K
0B
1M
1C
1>
0L
1*
0(
1D
0?
0M
#1900000
0%
04
05
1+
#1950000
1%
14
15
0+
1F
0A
1G
1B
1L
0H
1<
1)
1(
1M
#2000000
1$
1#
1!
1&
1"
0%
19
1:
16
18
1=
04
05
1+
0K
1I
0G
1E
1N
0B
1@
02
0M
1H
0C
0>
0<
0L
1?
0*
0)
0(
0D
0?
0J
0F
#2050000
0&
1%
08
14
15
0+
1P
1K
1G
1B
1;
17
13
12
1M
1C
1<
1L
1?
1D
1'
1*
1)
1(
0D
#2100000
0$
0#
0!
0"
0%
09
0:
06
0=
04
05
1+
0I
0E
0N
0@
#2150000
1%
14
15
0+
1O
1J
1A
0P
0K
0B
0C
0H
0?
0'
0*
0(
1D
#2200000
0%
04
05
1+
#2250000
1%
14
15
0+
0J
1F
0A
1K
0G
1B
0M
1H
1>
0<
1?
0D
1*
0)
1(
0?
1D
#2300000
0%
04
05
1+
#2350000
1%
14
15
0+
0O
1J
1P
0K
0>
0H
1'
0*
1?
