Exercise6/Question2p2/simulation/qsim/Question2p2.msim.vcd
$comment
	File created using the following command:
		vcd file Question2p2.msim.vcd -direction
$end
$date
	Sat Nov 20 19:34:43 2021
$end
$version
	ModelSim Version 10.1d
$end
$timescale
	1ps
$end
$scope module Question2p2_vlg_vec_tst $end
$var reg 1 ! W $end
$var reg 1 " X $end
$var reg 1 # Y $end
$var reg 1 $ Z $end
$var wire 1 % F $end
$var wire 1 & sampler $end
$scope module i1 $end
$var wire 1 ' gnd $end
$var wire 1 ( vcc $end
$var wire 1 ) unknown $end
$var tri1 1 * devclrn $end
$var tri1 1 + devpor $end
$var tri1 1 , devoe $end
$var wire 1 - X~combout $end
$var wire 1 . Z~combout $end
$var wire 1 / W~combout $end
$var wire 1 0 Y~combout $end
$var wire 1 1 inst|sub|81~0_combout $end
$upscope $end
$upscope $end
$enddefinitions $end
#0
$dumpvars
0!
0"
0#
0$
0%
x&
0'
1(
x)
1*
1+
1,
0-
0.
0/
00
01
$end
#50000
1!
1/
0&
#100000
1"
0!
1-
0/
1&
#150000
1!
1/
0&
#200000
1#
0"
0!
10
0-
0/
1&
#250000
1!
1/
0&
#300000
1"
0!
1-
0/
1&
11
1%
#350000
1!
1/
0&
#400000
1$
0#
0"
0!
1.
00
0-
0/
1&
01
0%
#450000
1!
1/
0&
11
1%
#500000
1"
0!
1-
0/
1&
#550000
1!
1/
0&
#600000
1#
0"
0!
10
0-
0/
1&
#650000
1!
1/
0&
#700000
1"
0!
1-
0/
1&
#750000
1!
1/
0&
#800000
0$
0#
0"
0!
0.
00
0-
0/
1&
01
0%
#850000
1!
1/
0&
#900000
1"
0!
1-
0/
1&
#950000
1!
1/
0&
