Exercise1/Question3/simulation/qsim/Exercise1Question3.msim.vcd
$comment
	File created using the following command:
		vcd file Exercise1Question3.msim.vcd -direction
$end
$date
	Sat Oct 23 16:53:41 2021
$end
$version
	ModelSim Version 10.1d
$end
$timescale
	1ps
$end
$scope module Exercise1Question3_vlg_vec_tst $end
$var reg 1 ! x $end
$var reg 1 " y $end
$var wire 1 # F $end
$var wire 1 $ sampler $end
$scope module i1 $end
$var wire 1 % gnd $end
$var wire 1 & vcc $end
$var wire 1 ' unknown $end
$var tri1 1 ( devclrn $end
$var tri1 1 ) devpor $end
$var tri1 1 * devoe $end
$var wire 1 + x~combout $end
$var wire 1 , y~combout $end
$var wire 1 - inst5~combout $end
$upscope $end
$upscope $end
$enddefinitions $end
#0
$dumpvars
0!
0"
0#
x$
0%
1&
x'
1(
1)
1*
0+
0,
0-
$end
#50000
1!
1+
0$
1-
1#
#100000
1"
0!
1,
0+
1$
#150000
1!
1+
0$
#200000
0"
0!
0,
0+
1$
0-
0#
#250000
1!
1+
0$
1-
1#
#300000
1"
0!
1,
0+
1$
#350000
1!
1+
0$
#400000
0"
0!
0,
0+
1$
0-
0#
#450000
1!
1+
0$
1-
1#
#500000
1"
0!
1,
0+
1$
#550000
1!
1+
0$
#600000
0"
0!
0,
0+
1$
0-
0#
#650000
1!
1+
0$
1-
1#
#700000
1"
0!
1,
0+
1$
#750000
1!
1+
0$
#800000
0"
0!
0,
0+
1$
0-
0#
#850000
1!
1+
0$
1-
1#
#900000
1"
0!
1,
0+
1$
#950000
1!
1+
0$
