Exercise4/Question1p2/simulation/qsim/Question1p2.msim.vcd
$comment
	File created using the following command:
		vcd file Question1p2.msim.vcd -direction
$end
$date
	Mon Nov 08 17:03:03 2021
$end
$version
	ModelSim Version 10.1d
$end
$timescale
	1ps
$end
$scope module Question1p2_vlg_vec_tst $end
$var reg 1 ! A0 $end
$var reg 1 " A1 $end
$var reg 1 # B0 $end
$var reg 1 $ B1 $end
$var reg 1 % Cin $end
$var wire 1 & Cout $end
$var wire 1 ' S0 $end
$var wire 1 ( S1 $end
$var wire 1 ) sampler $end
$scope module i1 $end
$var wire 1 * gnd $end
$var wire 1 + vcc $end
$var wire 1 , unknown $end
$var tri1 1 - devclrn $end
$var tri1 1 . devpor $end
$var tri1 1 / devoe $end
$var wire 1 0 B1~combout $end
$var wire 1 1 A1~combout $end
$var wire 1 2 Cin~combout $end
$var wire 1 3 A0~combout $end
$var wire 1 4 inst3~0_combout $end
$var wire 1 5 inst4~0_combout $end
$var wire 1 6 xor4~combout $end
$var wire 1 7 B0~combout $end
$var wire 1 8 xor2~0_combout $end
$upscope $end
$upscope $end
$enddefinitions $end
#0
$dumpvars
0!
0"
0#
0$
0%
0&
0'
0(
x)
0*
1+
x,
1-
1.
1/
00
01
02
03
04
05
06
07
08
$end
#50000
1#
17
0)
18
1'
#100000
1$
0#
10
07
1)
16
08
1(
0'
#150000
1#
17
0)
18
1'
#200000
1!
0$
0#
13
00
07
1)
06
0(
#250000
1#
17
0)
08
14
16
0'
1(
#300000
1$
0#
10
07
1)
06
15
18
04
16
05
0(
1&
1'
1(
0&
#350000
1#
17
0)
08
14
06
15
0'
0(
1&
#400000
1"
0!
0$
0#
11
03
00
07
1)
04
16
05
1(
0&
#450000
1#
17
0)
18
1'
#500000
1$
0#
10
07
1)
06
15
08
0(
1&
0'
#550000
1#
17
0)
18
1'
#600000
1!
0$
0#
13
00
07
1)
16
05
1(
0&
#650000
1#
17
0)
08
14
06
15
0'
0(
1&
#700000
1$
0#
10
07
1)
16
18
04
06
1(
1'
0(
#750000
1#
17
0)
08
14
16
0'
1(
#800000
1%
0"
0!
0$
0#
12
01
03
00
07
1)
18
04
05
06
1'
0&
0(
#850000
1#
17
0)
08
14
16
0'
1(
#900000
1$
0#
10
07
1)
06
15
18
04
16
05
0(
1&
1'
1(
0&
#950000
1#
17
0)
08
14
06
15
0'
0(
1&
#1000000
1!
0$
0#
13
00
07
1)
16
05
1(
0&
#1050000
1#
17
0)
18
1'
#1100000
1$
0#
10
07
1)
06
15
08
0(
1&
0'
#1150000
1#
17
0)
18
1'
#1200000
1"
0!
0$
0#
11
03
00
07
1)
04
16
05
1(
0&
#1250000
1#
17
0)
08
14
06
15
0'
0(
1&
#1300000
1$
0#
10
07
1)
16
18
04
06
1(
1'
0(
#1350000
1#
17
0)
08
14
16
0'
1(
#1400000
1!
0$
0#
13
00
07
1)
06
0(
#1450000
1#
17
0)
18
1'
#1500000
1$
0#
10
07
1)
16
08
1(
0'
#1550000
1#
17
0)
18
1'
#1600000
0%
0"
0!
0$
0#
02
01
03
00
07
1)
08
04
05
06
0'
0&
0(
#1650000
1#
17
0)
18
1'
#1700000
1$
0#
10
07
1)
16
08
1(
0'
#1750000
1#
17
0)
18
1'
