Exercise5/Question1/simulation/qsim/Question1.msim.vcd
$comment
	File created using the following command:
		vcd file Question1.msim.vcd -direction
$end
$date
	Mon Nov 15 03:00:14 2021
$end
$version
	ModelSim Version 10.1d
$end
$timescale
	1ps
$end
$scope module Question1_vlg_vec_tst $end
$var reg 1 ! A0 $end
$var reg 1 " A1 $end
$var reg 1 # A2 $end
$var reg 1 $ B0 $end
$var reg 1 % B1 $end
$var wire 1 & C0 $end
$var wire 1 ' C1 $end
$var wire 1 ( C2 $end
$var wire 1 ) C3 $end
$var wire 1 * C4 $end
$var wire 1 + sampler $end
$scope module i1 $end
$var wire 1 , gnd $end
$var wire 1 - vcc $end
$var wire 1 . unknown $end
$var tri1 1 / devclrn $end
$var tri1 1 0 devpor $end
$var tri1 1 1 devoe $end
$var wire 1 2 A0~combout $end
$var wire 1 3 B0~combout $end
$var wire 1 4 A0B0~combout $end
$var wire 1 5 B1~combout $end
$var wire 1 6 A1~combout $end
$var wire 1 7 inst|A_XOR_B~combout $end
$var wire 1 8 A2~combout $end
$var wire 1 9 inst3|A_XOR_B_XOR_C~4_combout $end
$var wire 1 : inst3|A_XOR_B_XOR_C~5_combout $end
$var wire 1 ; inst3|inst~0_combout $end
$var wire 1 < inst3|inst~1_combout $end
$var wire 1 = inst4|A_XOR_B~combout $end
$var wire 1 > inst4|A_AND_B~combout $end
$upscope $end
$upscope $end
$enddefinitions $end
#0
$dumpvars
0!
0"
0#
0$
0%
0&
0'
0(
0)
0*
x+
0,
1-
x.
1/
10
11
02
03
04
05
06
07
08
09
0:
0;
0<
0=
0>
$end
#50000
1$
13
0+
#100000
1%
0$
15
03
1+
#150000
1$
13
0+
#200000
1!
0%
0$
12
05
03
1+
#250000
1$
13
0+
14
1&
#300000
1%
0$
15
03
1+
17
04
1'
0&
#350000
1$
13
0+
14
1&
#400000
1"
0!
0%
0$
16
02
05
03
1+
07
04
0'
0&
#450000
1$
13
0+
17
1'
#500000
1%
0$
15
03
1+
1:
19
07
1(
0'
#550000
1$
13
0+
17
1'
#600000
1!
0%
0$
12
05
03
1+
09
07
0:
0'
0(
#650000
1$
13
0+
17
14
1'
1&
#700000
1%
0$
15
03
1+
1;
1:
04
1(
0&
#750000
1$
13
0+
1<
0:
07
14
1=
0(
0'
1&
1)
#800000
1#
0"
0!
0%
0$
18
06
02
05
03
1+
0;
19
0<
04
0=
0&
0)
#850000
1$
13
0+
1:
1(
#900000
1%
0$
15
03
1+
1=
0:
1)
0(
#950000
1$
13
0+
1:
1(
#1000000
1!
0%
0$
12
05
03
1+
0=
0:
0)
0(
#1050000
1$
13
0+
1:
14
1(
1&
#1100000
1%
0$
15
03
1+
1=
0:
17
04
1)
0(
1'
0&
#1150000
1$
13
0+
1:
14
1(
1&
#1200000
1"
0!
0%
0$
16
02
05
03
1+
0:
07
04
0=
0(
0'
0&
0)
#1250000
1$
13
0+
1:
17
1(
1'
#1300000
1%
0$
15
03
1+
1=
1;
09
07
1)
0'
#1350000
1$
13
0+
1<
0:
17
1>
0=
0(
1'
1*
0)
#1400000
1!
0%
0$
12
05
03
1+
0;
19
07
0>
1=
0<
0=
0'
0*
1)
0)
#1450000
1$
13
0+
1:
17
14
1(
1'
1&
#1500000
1%
0$
15
03
1+
1=
1;
04
1)
0&
#1550000
1$
13
0+
1<
07
14
1>
0=
0'
1&
1*
0)
