Exercise3/Question3/simulation/qsim/Question3.msim.vcd
$comment
	File created using the following command:
		vcd file Question3.msim.vcd -direction
$end
$date
	Sat Nov 06 09:51:31 2021
$end
$version
	ModelSim Version 10.1d
$end
$timescale
	1ps
$end
$scope module Question3_vlg_vec_tst $end
$var reg 1 ! A $end
$var reg 1 " B $end
$var reg 1 # C $end
$var wire 1 $ O1 $end
$var wire 1 % O2 $end
$var wire 1 & O3 $end
$var wire 1 ' O4 $end
$var wire 1 ( O5 $end
$var wire 1 ) sampler $end
$scope module i1 $end
$var wire 1 * gnd $end
$var wire 1 + vcc $end
$var wire 1 , unknown $end
$var tri1 1 - devclrn $end
$var tri1 1 . devpor $end
$var tri1 1 / devoe $end
$var wire 1 0 B~combout $end
$var wire 1 1 C~combout $end
$var wire 1 2 A~combout $end
$var wire 1 3 inst1~combout $end
$var wire 1 4 inst5~combout $end
$var wire 1 5 B_AND_NOT_C~0_combout $end
$upscope $end
$upscope $end
$enddefinitions $end
#0
$dumpvars
0!
0"
0#
1$
1%
0&
1'
0(
x)
0*
1+
x,
1-
1.
1/
00
01
02
13
14
05
$end
#50000
1#
11
0)
1(
#100000
1"
0#
10
01
1)
15
0(
1&
#150000
1#
11
0)
05
04
03
1(
0&
0%
0$
#200000
1!
0"
0#
12
00
01
1)
14
0(
1%
#250000
1#
11
0)
04
1(
0%
#300000
1"
0#
10
01
1)
15
14
13
0(
1&
1%
1$
#350000
1#
11
0)
05
1(
0&
#400000
0!
0"
0#
02
00
01
1)
0(
#450000
1#
11
0)
1(
#500000
1"
0#
10
01
1)
15
0(
1&
#550000
1#
11
0)
05
04
03
1(
0&
0%
0$
#600000
1!
0"
0#
12
00
01
1)
14
0(
1%
#650000
1#
11
0)
04
1(
0%
#700000
1"
0#
10
01
1)
15
14
13
0(
1&
1%
1$
#750000
1#
11
0)
05
1(
0&
#800000
0!
0"
0#
02
00
01
1)
0(
#850000
1#
11
0)
1(
#900000
1"
0#
10
01
1)
15
0(
1&
#950000
1#
11
0)
05
04
03
1(
0&
0%
0$
