Exercise7/Question2/simulation/qsim/Question2.msim.vcd
$comment
	File created using the following command:
		vcd file Question2.msim.vcd -direction
$end
$date
	Sun Nov 28 16:31:45 2021
$end
$version
	ModelSim Version 10.1d
$end
$timescale
	1ps
$end
$scope module Question2_vlg_vec_tst $end
$var reg 1 ! CLK $end
$var reg 1 " CLR $end
$var reg 1 # E $end
$var wire 1 $ A0 $end
$var wire 1 % A1 $end
$var wire 1 & sampler $end
$scope module i1 $end
$var wire 1 ' gnd $end
$var wire 1 ( vcc $end
$var wire 1 ) unknown $end
$var tri1 1 * devclrn $end
$var tri1 1 + devpor $end
$var tri1 1 , devoe $end
$var wire 1 - CLK~combout $end
$var wire 1 . CLK~clkctrl_outclk $end
$var wire 1 / 7476|8~0_combout $end
$var wire 1 0 CLR~combout $end
$var wire 1 1 CLR~clkctrl_outclk $end
$var wire 1 2 7476|8~regout $end
$var wire 1 3 E~combout $end
$var wire 1 4 7476|7~0_combout $end
$var wire 1 5 7476|7~regout $end
$upscope $end
$upscope $end
$enddefinitions $end
#0
$dumpvars
0!
1"
0#
0$
0%
x&
0'
1(
x)
1*
1+
1,
0-
0.
1/
10
11
02
03
04
05
$end
#50000
0"
1!
00
1-
1.
01
0&
12
14
0/
1$
#100000
0!
0-
0.
1&
#150000
1!
1-
1.
0&
15
02
1/
1%
0$
#200000
0!
0-
0.
1&
#250000
1!
1-
1.
0&
12
04
0/
1$
#300000
0!
0-
0.
1&
#350000
1!
1-
1.
0&
05
02
1/
0%
0$
#400000
0!
0-
0.
1&
#450000
1!
1-
1.
0&
12
14
0/
1$
#500000
1#
1"
0!
13
10
0-
0.
11
1&
04
02
14
1/
0$
#550000
0"
1!
00
1-
1.
01
0&
15
12
0/
1%
1$
#600000
0!
0-
0.
1&
#650000
1!
1-
1.
0&
02
04
1/
0$
#700000
0!
0-
0.
1&
#750000
1!
1-
1.
0&
05
12
0/
0%
1$
#800000
0!
0-
0.
1&
#850000
1!
1-
1.
0&
02
14
1/
0$
#900000
0!
0-
0.
1&
#950000
1!
1-
1.
0&
15
12
0/
1%
1$
